{
  "weekend": false,
  "holiday": true,
  "num_coupons": 0,
  "customers": [
    {
      "name": "Anton",
      "age": 60
    },
    {
      "name": "Gerda",
      "age": 62
    },
    {
      "name": "Amalie",
      "age": 35
    },
    {
      "name": "Gerhard",
      "age": 38
    },
    {
      "name": "Bobo",
      "age": 3
    },
    {
      "name": "Zoe",
      "age": 7
    },
    {
      "name": "Bibi",
      "age": 10
    },
    {
      "name": "Josefine",
      "age": 14
    },
    {
      "name": "Josef",
      "age": 17
    },
    {
      "name": "Miri",
      "age": 15
    }
  ]
}