{
  "weekend": true,
  "holiday": false,
  "num_coupons": 1,
  "customers": [
      {
        "name": "Vereinsmitglied",
        "age" : 20
      },
      {
        "name": "Vereinsmitglied",
        "age" : 20
      },
      {
        "name": "Vereinsmitglied",
        "age" : 20
      },
      {
        "name": "Vereinsmitglied",
        "age" : 20
      },
      {
        "name": "Vereinsmitglied",
        "age" : 20
      },
            {
        "name": "Vereinsmitglied",
        "age" : 20
      },
      {
        "name": "Vereinsmitglied",
        "age" : 20
      },
      {
        "name": "Vereinsmitglied",
        "age" : 20
      },
      {
        "name": "Vereinsmitglied",
        "age" : 20
      },
      {
        "name": "Vereinsmitglied",
        "age" : 20
      },
      {
        "name": "Vereinsmitglied",
        "age" : 20
      },
      {
        "name": "Vereinsmitglied",
        "age" : 20
      },
            {
        "name": "Vereinsmitglied",
        "age" : 20
      },
      {
        "name": "Vereinsmitglied",
        "age" : 20
      }
  ]
}