{
  "weekend": true,
  "holiday": true,
  "num_coupons": 1,
  "customers": [
    {
      "name": "Antonia",
      "age": 13
    },
    {
      "name": "Freundin 1",
      "age": 13
    },
    {
      "name": "Freundin 2",
      "age": 13
    },
    {
      "name": "Freundin 3",
      "age": 13
    },
    {
      "name": "Mutter",
      "age": 40
    },
    {
      "name": "Schwester",
      "age": 2
    },
  ]
}